\relax 
\providecommand\HyperFirstAtBeginDocument{\AtBeginDocument}
\HyperFirstAtBeginDocument{\ifx\hyper@anchor\@undefined
\global\let\oldcontentsline\contentsline
\gdef\contentsline#1#2#3#4{\oldcontentsline{#1}{#2}{#3}}
\global\let\oldnewlabel\newlabel
\gdef\newlabel#1#2{\newlabelxx{#1}#2}
\gdef\newlabelxx#1#2#3#4#5#6{\oldnewlabel{#1}{{#2}{#3}}}
\AtEndDocument{\ifx\hyper@anchor\@undefined
\let\contentsline\oldcontentsline
\let\newlabel\oldnewlabel
\fi}
\fi}
\global\let\hyper@last\relax 
\gdef\HyperFirstAtBeginDocument#1{#1}
\providecommand\HyField@AuxAddToFields[1]{}
\@writefile{toc}{\contentsline {chapter}{\numberline {1}\discretionary {-}{}{}Class \discretionary {-}{}{}Index}{1}{chapter.1}}
\@writefile{lof}{\addvspace {10\p@ }}
\@writefile{lot}{\addvspace {10\p@ }}
\@writefile{toc}{\contentsline {section}{\numberline {1.1}\discretionary {-}{}{}Class \discretionary {-}{}{}Hierarchy}{1}{section.1.1}}
\@writefile{toc}{\contentsline {chapter}{\numberline {2}\discretionary {-}{}{}Class \discretionary {-}{}{}Index}{3}{chapter.2}}
\@writefile{lof}{\addvspace {10\p@ }}
\@writefile{lot}{\addvspace {10\p@ }}
\@writefile{toc}{\contentsline {section}{\numberline {2.1}\discretionary {-}{}{}Class \discretionary {-}{}{}List}{3}{section.2.1}}
\@writefile{toc}{\contentsline {chapter}{\numberline {3}\discretionary {-}{}{}Class \discretionary {-}{}{}Documentation}{5}{chapter.3}}
\@writefile{lof}{\addvspace {10\p@ }}
\@writefile{lot}{\addvspace {10\p@ }}
\@writefile{toc}{\contentsline {section}{\numberline {3.1}\discretionary {-}{}{}Fsr \discretionary {-}{}{}Class \discretionary {-}{}{}Reference}{5}{section.3.1}}
\newlabel{class_fsr}{{3.1}{5}{\-Fsr \-Class \-Reference\relax }{section.3.1}{}}
\newlabel{class_fsr_a1d4b3d0fff2997e489792106b26d96f3}{{3.1}{5}{\-Public \-Member \-Functions\relax }{section*.2}{}}
\newlabel{class_fsr_a3f85b151cf1a4e132aeef8cff2777744}{{3.1}{5}{\-Public \-Member \-Functions\relax }{section*.2}{}}
\newlabel{class_fsr_a2e0d2092c2feca18dfa70bd3f0553cf1}{{3.1}{5}{\-Public \-Member \-Functions\relax }{section*.2}{}}
\newlabel{class_fsr_abb996a42d5731446f04f111fe3e5e85e}{{3.1}{5}{\-Public \-Member \-Functions\relax }{section*.2}{}}
\newlabel{class_fsr_aac037fb37ab3fa7f39b1f67a69472028}{{3.1}{5}{\-Public \-Member \-Functions\relax }{section*.2}{}}
\newlabel{class_fsr_a8cf2ff39c3046088771c433d19c792a4}{{3.1}{5}{\-Public \-Member \-Functions\relax }{section*.2}{}}
\newlabel{class_fsr_a1563d22a7fc6874760fcb89a060067aa}{{3.1}{5}{\-Public \-Member \-Functions\relax }{section*.2}{}}
\newlabel{class_fsr_ab99f877ded990e7117d9a2164ce66541}{{3.1}{5}{\-Public \-Member \-Functions\relax }{section*.2}{}}
\newlabel{class_fsr_a8f6ae2d0ca33c6890256e5d759ec4887}{{3.1}{5}{\-Public \-Member \-Functions\relax }{section*.2}{}}
\newlabel{class_fsr_a967dc153fedebb363cd073fdfd438a2b}{{3.1}{5}{\-Public \-Member \-Functions\relax }{section*.2}{}}
\newlabel{class_fsr_acfc7859e1eef0865b7e681514eb9f5a7}{{3.1}{5}{\-Public \-Member \-Functions\relax }{section*.2}{}}
\newlabel{class_fsr_acf818d413730aa2721b2d63890986007}{{3.1}{5}{\-Public \-Member \-Functions\relax }{section*.2}{}}
\@writefile{toc}{\contentsline {section}{\numberline {3.2}mpixd\discretionary {-}{}{}\_\discretionary {-}{}{}flash\discretionary {-}{}{}\_\discretionary {-}{}{}pg \discretionary {-}{}{}Struct \discretionary {-}{}{}Reference}{5}{section.3.2}}
\newlabel{structmpixd__flash__pg}{{3.2}{5}{mpixd\-\_\-flash\-\_\-pg \-Struct \-Reference\relax }{section.3.2}{}}
\newlabel{structmpixd__flash__pg_a5732ba2eec90f4c0397d73a578dc56ce}{{3.2}{5}{\-Public \-Member \-Functions\relax }{section*.3}{}}
\newlabel{structmpixd__flash__pg_a1f9bf3512d79ca20abacc0ece666dd4a}{{3.2}{5}{\-Public \-Member \-Functions\relax }{section*.3}{}}
\@writefile{toc}{\contentsline {section}{\numberline {3.3}\discretionary {-}{}{}Mpx\discretionary {-}{}{}File\discretionary {-}{}{}Logger \discretionary {-}{}{}Class \discretionary {-}{}{}Reference}{6}{section.3.3}}
\newlabel{class_mpx_file_logger}{{3.3}{6}{\-Mpx\-File\-Logger \-Class \-Reference\relax }{section.3.3}{}}
\newlabel{class_mpx_file_logger_a5c0f88dc2ea6a698516692be9d35731e}{{3.3}{6}{\-Public \-Member \-Functions\relax }{section*.4}{}}
\newlabel{class_mpx_file_logger_a9763b9aba29ca2719e185c99a66280d7}{{3.3}{6}{\-Public \-Member \-Functions\relax }{section*.4}{}}
\@writefile{toc}{\contentsline {section}{\numberline {3.4}\discretionary {-}{}{}Mpx\discretionary {-}{}{}Logger \discretionary {-}{}{}Class \discretionary {-}{}{}Reference}{6}{section.3.4}}
\newlabel{class_mpx_logger}{{3.4}{6}{\-Mpx\-Logger \-Class \-Reference\relax }{section.3.4}{}}
\newlabel{class_mpx_logger_a1c5f920517d604cadb026c12f7deabdb}{{3.4}{6}{\-Public \-Member \-Functions\relax }{section*.5}{}}
\newlabel{class_mpx_logger_a66852b6e7b283db3ba2f6e448f453a91}{{3.4}{6}{\-Public \-Member \-Functions\relax }{section*.5}{}}
\newlabel{class_mpx_logger_a68f4414b4164924c4469e2875aabfebc}{{3.4}{7}{\-Public \-Member \-Functions\relax }{section*.5}{}}
\newlabel{class_mpx_logger_a57fef877fab9a2f4bf14db8dfabc40af}{{3.4}{7}{\-Public \-Member \-Functions\relax }{section*.5}{}}
\newlabel{class_mpx_logger_a186b2a8bed9b8309bde18cf1802487ca}{{3.4}{7}{\-Public \-Member \-Functions\relax }{section*.5}{}}
\newlabel{class_mpx_logger_af6ee5f13dadd1cf12babf44729e72a96}{{3.4}{7}{\-Public \-Member \-Functions\relax }{section*.5}{}}
\newlabel{class_mpx_logger_a283434cf40e1ef8d554f06b6ff2b3e0c}{{3.4}{7}{\-Public \-Member \-Functions\relax }{section*.5}{}}
\newlabel{class_mpx_logger_a786c7248320a8a9419d85bd2955cb5bc}{{3.4}{7}{\-Public \-Attributes\relax }{section*.6}{}}
\@writefile{toc}{\contentsline {subsection}{\numberline {3.4.1}\discretionary {-}{}{}Detailed \discretionary {-}{}{}Description}{7}{subsection.3.4.1}}
\@writefile{toc}{\contentsline {section}{\numberline {3.5}\discretionary {-}{}{}Mpx\discretionary {-}{}{}Module \discretionary {-}{}{}Class \discretionary {-}{}{}Reference}{7}{section.3.5}}
\newlabel{class_mpx_module}{{3.5}{7}{\-Mpx\-Module \-Class \-Reference\relax }{section.3.5}{}}
\newlabel{class_mpx_module_a85fe667b40a27d887c1c46a3032d5bf7}{{3.5}{7}{\-Public \-Member \-Functions\relax }{section*.7}{}}
\newlabel{class_mpx_module_ae65abe33830a09a2f010085ee394bb15}{{3.5}{7}{\-Public \-Member \-Functions\relax }{section*.7}{}}
\newlabel{class_mpx_module_a04e325d405a44376e9850fa2a27c5001}{{3.5}{7}{\-Public \-Member \-Functions\relax }{section*.7}{}}
\newlabel{class_mpx_module_a9e666e178c3de6977537974fe67d7d43}{{3.5}{7}{\-Public \-Member \-Functions\relax }{section*.7}{}}
\newlabel{class_mpx_module_a74fc87353e7d0d1ef6fdcd689122caf8}{{3.5}{7}{\-Public \-Member \-Functions\relax }{section*.7}{}}
\newlabel{class_mpx_module_a9cd14d2151cd62b9f7427b52df5076ca}{{3.5}{7}{\-Public \-Member \-Functions\relax }{section*.7}{}}
\newlabel{class_mpx_module_a7cfb104a2cdbc84c066c73ebccf7b4aa}{{3.5}{7}{\-Public \-Member \-Functions\relax }{section*.7}{}}
\newlabel{class_mpx_module_a971398a5ad1034d3f774f47073a21a4a}{{3.5}{7}{\-Public \-Member \-Functions\relax }{section*.7}{}}
\newlabel{class_mpx_module_a4f96dbca31fc460b7d7e7f631ad54c5a}{{3.5}{7}{\-Public \-Member \-Functions\relax }{section*.7}{}}
\newlabel{class_mpx_module_a11b2975342002392a402286763a4aff2}{{3.5}{7}{\-Public \-Member \-Functions\relax }{section*.7}{}}
\newlabel{class_mpx_module_ae8c00b0190505e9c4dabea6dfc6fe2ca}{{3.5}{7}{\-Public \-Member \-Functions\relax }{section*.7}{}}
\newlabel{class_mpx_module_a3c211c7cb104ee449587568469c094ca}{{3.5}{8}{\-Public \-Member \-Functions\relax }{section*.7}{}}
\newlabel{class_mpx_module_a7ea5235d271c3c645035fb2c9cae4f34}{{3.5}{8}{\-Public \-Member \-Functions\relax }{section*.7}{}}
\newlabel{class_mpx_module_a5f5eec1d313ebf9389d3e323a915527f}{{3.5}{8}{\-Public \-Member \-Functions\relax }{section*.7}{}}
\newlabel{class_mpx_module_a315866cd81f96eeef37232abf18d1dc8}{{3.5}{8}{\-Public \-Member \-Functions\relax }{section*.7}{}}
\newlabel{class_mpx_module_a1a3f934c7ec3ebba5ae9db536704104b}{{3.5}{8}{\-Public \-Member \-Functions\relax }{section*.7}{}}
\newlabel{class_mpx_module_a513d3436268d237e640051dd5e99d5a5}{{3.5}{8}{\-Public \-Member \-Functions\relax }{section*.7}{}}
\newlabel{class_mpx_module_a1ce2d14a9b14d2fb64c5953288097d68}{{3.5}{8}{\-Public \-Member \-Functions\relax }{section*.7}{}}
\newlabel{class_mpx_module_a455fa408612e115e6e5a9c98d0ff6753}{{3.5}{8}{\-Public \-Member \-Functions\relax }{section*.7}{}}
\newlabel{class_mpx_module_ab7e2b5edcc2b416d6486e6f5ce2737e1}{{3.5}{8}{\-Public \-Member \-Functions\relax }{section*.7}{}}
\newlabel{class_mpx_module_aecd34c094703b259a1b744a484e45b60}{{3.5}{8}{\-Public \-Member \-Functions\relax }{section*.7}{}}
\newlabel{class_mpx_module_a4a21dd5a9c9cb8df9f98a12c36ebde5a}{{3.5}{9}{\-Public \-Member \-Functions\relax }{section*.7}{}}
\gdef \LT@i {\LT@entry 
    {1}{59.44409pt}\LT@entry 
    {1}{288.47205pt}}
\gdef \LT@ii {\LT@entry 
    {1}{59.44409pt}\LT@entry 
    {1}{288.47205pt}}
\@writefile{toc}{\contentsline {subsection}{\numberline {3.5.1}\discretionary {-}{}{}Detailed \discretionary {-}{}{}Description}{11}{subsection.3.5.1}}
\@writefile{toc}{\contentsline {subsection}{\numberline {3.5.2}\discretionary {-}{}{}Constructor \& \discretionary {-}{}{}Destructor \discretionary {-}{}{}Documentation}{11}{subsection.3.5.2}}
\@writefile{toc}{\contentsline {subsubsection}{\numberline {3.5.2.1}\discretionary {-}{}{}Mpx\discretionary {-}{}{}Module}{11}{subsubsection.3.5.2.1}}
\newlabel{class_mpx_module_a3b6c5867dfbe9610fe77e27b32db5643}{{3.5.2.1}{11}{\-Mpx\-Module\relax }{subsubsection.3.5.2.1}{}}
\@writefile{toc}{\contentsline {subsection}{\numberline {3.5.3}\discretionary {-}{}{}Member \discretionary {-}{}{}Function \discretionary {-}{}{}Documentation}{11}{subsection.3.5.3}}
\@writefile{toc}{\contentsline {subsubsection}{\numberline {3.5.3.1}chip\discretionary {-}{}{}Count}{11}{subsubsection.3.5.3.1}}
\newlabel{class_mpx_module_a344cd4b2410db7f63724ff24a09247a7}{{3.5.3.1}{11}{chip\-Count\relax }{subsubsection.3.5.3.1}{}}
\@writefile{toc}{\contentsline {subsubsection}{\numberline {3.5.3.2}chip\discretionary {-}{}{}Name}{11}{subsubsection.3.5.3.2}}
\newlabel{class_mpx_module_aa0c2f4c49ca98a402091b8e44f3383f5}{{3.5.3.2}{11}{chip\-Name\relax }{subsubsection.3.5.3.2}{}}
\gdef \LT@iii {\LT@entry 
    {1}{59.44409pt}\LT@entry 
    {1}{288.47205pt}}
\gdef \LT@iv {\LT@entry 
    {1}{59.44409pt}\LT@entry 
    {1}{288.47205pt}}
\@writefile{toc}{\contentsline {subsubsection}{\numberline {3.5.3.3}chip\discretionary {-}{}{}Position}{12}{subsubsection.3.5.3.3}}
\newlabel{class_mpx_module_a8e0b6c761a139b3eaf5ca455466d10ec}{{3.5.3.3}{12}{chip\-Position\relax }{subsubsection.3.5.3.3}{}}
\@writefile{toc}{\contentsline {subsubsection}{\numberline {3.5.3.4}chip\discretionary {-}{}{}Type}{12}{subsubsection.3.5.3.4}}
\newlabel{class_mpx_module_a5ad8c9ca53578976d1f4673ef0b9c16f}{{3.5.3.4}{12}{chip\-Type\relax }{subsubsection.3.5.3.4}{}}
\@writefile{toc}{\contentsline {subsubsection}{\numberline {3.5.3.5}close\discretionary {-}{}{}Data\discretionary {-}{}{}File}{12}{subsubsection.3.5.3.5}}
\newlabel{class_mpx_module_a9a2fb5fd6a3e4d305263e8fb96d6fbb4}{{3.5.3.5}{12}{close\-Data\-File\relax }{subsubsection.3.5.3.5}{}}
\gdef \LT@v {\LT@entry 
    {1}{59.44409pt}\LT@entry 
    {1}{288.47205pt}}
\gdef \LT@vi {\LT@entry 
    {1}{59.44409pt}\LT@entry 
    {1}{288.47205pt}}
\@writefile{toc}{\contentsline {subsubsection}{\numberline {3.5.3.6}close\discretionary {-}{}{}Shutter}{13}{subsubsection.3.5.3.6}}
\newlabel{class_mpx_module_a69ddac63de5aab8c5a17be92b724978f}{{3.5.3.6}{13}{close\-Shutter\relax }{subsubsection.3.5.3.6}{}}
\@writefile{toc}{\contentsline {subsubsection}{\numberline {3.5.3.7}config\discretionary {-}{}{}Test\discretionary {-}{}{}Pulse}{13}{subsubsection.3.5.3.7}}
\newlabel{class_mpx_module_a4ca0008d97fe1a365dbee0ab77238360}{{3.5.3.7}{13}{config\-Test\-Pulse\relax }{subsubsection.3.5.3.7}{}}
\@writefile{toc}{\contentsline {subsubsection}{\numberline {3.5.3.8}decode2\discretionary {-}{}{}Pixels}{13}{subsubsection.3.5.3.8}}
\newlabel{class_mpx_module_aa0383362b6d1dc1b7740c90407208550}{{3.5.3.8}{13}{decode2\-Pixels\relax }{subsubsection.3.5.3.8}{}}
\gdef \LT@vii {\LT@entry 
    {1}{59.44409pt}\LT@entry 
    {1}{288.47205pt}}
\gdef \LT@viii {\LT@entry 
    {1}{59.44409pt}\LT@entry 
    {1}{288.47205pt}}
\@writefile{toc}{\contentsline {subsubsection}{\numberline {3.5.3.9}enable\discretionary {-}{}{}Ext\discretionary {-}{}{}Trigger}{14}{subsubsection.3.5.3.9}}
\newlabel{class_mpx_module_a53e6322d82af48cf9e5f4c4dca53170a}{{3.5.3.9}{14}{enable\-Ext\-Trigger\relax }{subsubsection.3.5.3.9}{}}
\@writefile{toc}{\contentsline {subsubsection}{\numberline {3.5.3.10}enable\discretionary {-}{}{}Timer}{14}{subsubsection.3.5.3.10}}
\newlabel{class_mpx_module_af8d6b1e89bc213255f62e069e647bfae}{{3.5.3.10}{14}{enable\-Timer\relax }{subsubsection.3.5.3.10}{}}
\@writefile{toc}{\contentsline {subsubsection}{\numberline {3.5.3.11}erase\discretionary {-}{}{}Dacs}{14}{subsubsection.3.5.3.11}}
\newlabel{class_mpx_module_ab57931f82bea1f124333a81bb23d034e}{{3.5.3.11}{14}{erase\-Dacs\relax }{subsubsection.3.5.3.11}{}}
\@writefile{toc}{\contentsline {subsubsection}{\numberline {3.5.3.12}erase\discretionary {-}{}{}Pixels\discretionary {-}{}{}Cfg}{14}{subsubsection.3.5.3.12}}
\newlabel{class_mpx_module_a0bf75daa32fe8c310d53b2d7cf00e53f}{{3.5.3.12}{14}{erase\-Pixels\-Cfg\relax }{subsubsection.3.5.3.12}{}}
\gdef \LT@ix {\LT@entry 
    {1}{59.44409pt}\LT@entry 
    {1}{288.47205pt}}
\@writefile{toc}{\contentsline {subsubsection}{\numberline {3.5.3.13}get\discretionary {-}{}{}Driver\discretionary {-}{}{}Version}{15}{subsubsection.3.5.3.13}}
\newlabel{class_mpx_module_a56ce1410fbca4d877d1c7d85830e6c36}{{3.5.3.13}{15}{get\-Driver\-Version\relax }{subsubsection.3.5.3.13}{}}
\@writefile{toc}{\contentsline {subsubsection}{\numberline {3.5.3.14}get\discretionary {-}{}{}Firmware\discretionary {-}{}{}Version}{15}{subsubsection.3.5.3.14}}
\newlabel{class_mpx_module_afca31f9eccb5a511deec3e043018b1d2}{{3.5.3.14}{15}{get\-Firmware\-Version\relax }{subsubsection.3.5.3.14}{}}
\@writefile{toc}{\contentsline {subsubsection}{\numberline {3.5.3.15}get\discretionary {-}{}{}Mpx\discretionary {-}{}{}Dac}{15}{subsubsection.3.5.3.15}}
\newlabel{class_mpx_module_a0f0fa90bad09897b24f66b430e2e0978}{{3.5.3.15}{15}{get\-Mpx\-Dac\relax }{subsubsection.3.5.3.15}{}}
\gdef \LT@x {\LT@entry 
    {1}{59.44409pt}\LT@entry 
    {1}{288.47205pt}}
\@writefile{toc}{\contentsline {subsubsection}{\numberline {3.5.3.16}high\discretionary {-}{}{}Speed\discretionary {-}{}{}Readout}{16}{subsubsection.3.5.3.16}}
\newlabel{class_mpx_module_a48886840ce71f8a8ad129061d2fb0c51}{{3.5.3.16}{16}{high\-Speed\-Readout\relax }{subsubsection.3.5.3.16}{}}
\@writefile{toc}{\contentsline {subsubsection}{\numberline {3.5.3.17}init}{16}{subsubsection.3.5.3.17}}
\newlabel{class_mpx_module_aa8481b79a3c6dfc29a7c2d6338cf1e3e}{{3.5.3.17}{16}{init\relax }{subsubsection.3.5.3.17}{}}
\@writefile{toc}{\contentsline {subsubsection}{\numberline {3.5.3.18}last\discretionary {-}{}{}Clock\discretionary {-}{}{}Tick}{16}{subsubsection.3.5.3.18}}
\newlabel{class_mpx_module_af96e8ad4daed5a24bfc21661cffc2c90}{{3.5.3.18}{16}{last\-Clock\-Tick\relax }{subsubsection.3.5.3.18}{}}
\@writefile{toc}{\contentsline {subsubsection}{\numberline {3.5.3.19}last\discretionary {-}{}{}Err\discretionary {-}{}{}Str}{17}{subsubsection.3.5.3.19}}
\newlabel{class_mpx_module_ac42d1b9ff107870aabcba9b64020db2e}{{3.5.3.19}{17}{last\-Err\-Str\relax }{subsubsection.3.5.3.19}{}}
\@writefile{toc}{\contentsline {subsubsection}{\numberline {3.5.3.20}last\discretionary {-}{}{}Frame\discretionary {-}{}{}Count}{17}{subsubsection.3.5.3.20}}
\newlabel{class_mpx_module_a62cea9ca3c79134d4cd804323f779bd7}{{3.5.3.20}{17}{last\-Frame\-Count\relax }{subsubsection.3.5.3.20}{}}
\@writefile{toc}{\contentsline {subsubsection}{\numberline {3.5.3.21}last\discretionary {-}{}{}Time\discretionary {-}{}{}Stamp}{17}{subsubsection.3.5.3.21}}
\newlabel{class_mpx_module_a22e67f493b73302a08007c1a3c6547d2}{{3.5.3.21}{17}{last\-Time\-Stamp\relax }{subsubsection.3.5.3.21}{}}
\@writefile{toc}{\contentsline {subsubsection}{\numberline {3.5.3.22}load\discretionary {-}{}{}Config}{17}{subsubsection.3.5.3.22}}
\newlabel{class_mpx_module_ab0cd53e48a95f55e9e46213702157082}{{3.5.3.22}{17}{load\-Config\relax }{subsubsection.3.5.3.22}{}}
\@writefile{toc}{\contentsline {subsubsection}{\numberline {3.5.3.23}log\discretionary {-}{}{}Verbose}{17}{subsubsection.3.5.3.23}}
\newlabel{class_mpx_module_a37c7417f3730a21a8f4d97f673a9603a}{{3.5.3.23}{17}{log\-Verbose\relax }{subsubsection.3.5.3.23}{}}
\gdef \LT@xi {\LT@entry 
    {1}{59.44409pt}\LT@entry 
    {1}{288.47205pt}}
\@writefile{toc}{\contentsline {subsubsection}{\numberline {3.5.3.24}msg\discretionary {-}{}{}Available}{18}{subsubsection.3.5.3.24}}
\newlabel{class_mpx_module_af9ca8a3219a7da2ce999c001860085c6}{{3.5.3.24}{18}{msg\-Available\relax }{subsubsection.3.5.3.24}{}}
\@writefile{toc}{\contentsline {subsubsection}{\numberline {3.5.3.25}new\discretionary {-}{}{}Frame}{18}{subsubsection.3.5.3.25}}
\newlabel{class_mpx_module_a65562d8ea9f37e0fdb80e7ddd3a2cad2}{{3.5.3.25}{18}{new\-Frame\relax }{subsubsection.3.5.3.25}{}}
\@writefile{toc}{\contentsline {subsubsection}{\numberline {3.5.3.26}open\discretionary {-}{}{}Data\discretionary {-}{}{}File}{18}{subsubsection.3.5.3.26}}
\newlabel{class_mpx_module_aaf23e6fa24a8a163962d58d69bb4807a}{{3.5.3.26}{18}{open\-Data\-File\relax }{subsubsection.3.5.3.26}{}}
\gdef \LT@xii {\LT@entry 
    {1}{59.44409pt}\LT@entry 
    {1}{288.47205pt}}
\gdef \LT@xiii {\LT@entry 
    {1}{59.44409pt}\LT@entry 
    {1}{288.47205pt}}
\@writefile{toc}{\contentsline {subsubsection}{\numberline {3.5.3.27}open\discretionary {-}{}{}Shutter}{19}{subsubsection.3.5.3.27}}
\newlabel{class_mpx_module_adcf2712bb4a883bd4d0f5a2ee3ec3e6c}{{3.5.3.27}{19}{open\-Shutter\relax }{subsubsection.3.5.3.27}{}}
\@writefile{toc}{\contentsline {subsubsection}{\numberline {3.5.3.28}open\discretionary {-}{}{}Shutter}{19}{subsubsection.3.5.3.28}}
\newlabel{class_mpx_module_ac924b3bef0f77982c11ac66879418261}{{3.5.3.28}{19}{open\-Shutter\relax }{subsubsection.3.5.3.28}{}}
\@writefile{toc}{\contentsline {subsubsection}{\numberline {3.5.3.29}par\discretionary {-}{}{}Readout}{19}{subsubsection.3.5.3.29}}
\newlabel{class_mpx_module_ad82f1a94cbfb580a32e9716697a6f360}{{3.5.3.29}{19}{par\-Readout\relax }{subsubsection.3.5.3.29}{}}
\gdef \LT@xiv {\LT@entry 
    {1}{59.44409pt}\LT@entry 
    {1}{288.47205pt}}
\gdef \LT@xv {\LT@entry 
    {1}{59.44409pt}\LT@entry 
    {1}{288.47205pt}}
\@writefile{toc}{\contentsline {subsubsection}{\numberline {3.5.3.30}ping}{20}{subsubsection.3.5.3.30}}
\newlabel{class_mpx_module_a1f5632140048a3ce81abee5ab09053ea}{{3.5.3.30}{20}{ping\relax }{subsubsection.3.5.3.30}{}}
\@writefile{toc}{\contentsline {subsubsection}{\numberline {3.5.3.31}read\discretionary {-}{}{}Adc}{20}{subsubsection.3.5.3.31}}
\newlabel{class_mpx_module_a99ec8f67b256c3827261a5cd82843fe2}{{3.5.3.31}{20}{read\-Adc\relax }{subsubsection.3.5.3.31}{}}
\@writefile{toc}{\contentsline {subsubsection}{\numberline {3.5.3.32}read\discretionary {-}{}{}Chip\discretionary {-}{}{}Id}{20}{subsubsection.3.5.3.32}}
\newlabel{class_mpx_module_aefa3d8c62939324d7e9c705d90a1309e}{{3.5.3.32}{20}{read\-Chip\-Id\relax }{subsubsection.3.5.3.32}{}}
\gdef \LT@xvi {\LT@entry 
    {1}{59.44409pt}\LT@entry 
    {1}{288.47205pt}}
\gdef \LT@xvii {\LT@entry 
    {1}{59.44409pt}\LT@entry 
    {1}{288.47205pt}}
\gdef \LT@xviii {\LT@entry 
    {1}{59.44409pt}\LT@entry 
    {1}{288.47205pt}}
\@writefile{toc}{\contentsline {subsubsection}{\numberline {3.5.3.33}read\discretionary {-}{}{}Firmware}{21}{subsubsection.3.5.3.33}}
\newlabel{class_mpx_module_a63ad9fe0cfe155bb596ff2853c75c119}{{3.5.3.33}{21}{read\-Firmware\relax }{subsubsection.3.5.3.33}{}}
\@writefile{toc}{\contentsline {subsubsection}{\numberline {3.5.3.34}read\discretionary {-}{}{}Fsr}{21}{subsubsection.3.5.3.34}}
\newlabel{class_mpx_module_a23c7371e57c3ffb385212922787a9a33}{{3.5.3.34}{21}{read\-Fsr\relax }{subsubsection.3.5.3.34}{}}
\@writefile{toc}{\contentsline {subsubsection}{\numberline {3.5.3.35}read\discretionary {-}{}{}Fsr}{21}{subsubsection.3.5.3.35}}
\newlabel{class_mpx_module_a2fe05eb93aeea6e02719a5d84e9f2a93}{{3.5.3.35}{21}{read\-Fsr\relax }{subsubsection.3.5.3.35}{}}
\gdef \LT@xix {\LT@entry 
    {1}{59.44409pt}\LT@entry 
    {1}{288.47205pt}}
\gdef \LT@xx {\LT@entry 
    {1}{59.44409pt}\LT@entry 
    {1}{288.47205pt}}
\@writefile{toc}{\contentsline {subsubsection}{\numberline {3.5.3.36}read\discretionary {-}{}{}Matrix}{22}{subsubsection.3.5.3.36}}
\newlabel{class_mpx_module_a88234434a4a34d46e59d1bc5253ed9b7}{{3.5.3.36}{22}{read\-Matrix\relax }{subsubsection.3.5.3.36}{}}
\@writefile{toc}{\contentsline {subsubsection}{\numberline {3.5.3.37}read\discretionary {-}{}{}Matrix\discretionary {-}{}{}Raw}{22}{subsubsection.3.5.3.37}}
\newlabel{class_mpx_module_a34f7d778ff934faa6942d43eff2cecff}{{3.5.3.37}{22}{read\-Matrix\-Raw\relax }{subsubsection.3.5.3.37}{}}
\@writefile{toc}{\contentsline {subsubsection}{\numberline {3.5.3.38}read\discretionary {-}{}{}Reg}{22}{subsubsection.3.5.3.38}}
\newlabel{class_mpx_module_a55b77e9e0c65f5e706f1e09ebde6fa75}{{3.5.3.38}{22}{read\-Reg\relax }{subsubsection.3.5.3.38}{}}
\gdef \LT@xxi {\LT@entry 
    {1}{59.44409pt}\LT@entry 
    {1}{288.47205pt}}
\gdef \LT@xxii {\LT@entry 
    {1}{59.44409pt}\LT@entry 
    {1}{288.47205pt}}
\gdef \LT@xxiii {\LT@entry 
    {1}{59.44409pt}\LT@entry 
    {1}{288.47205pt}}
\@writefile{toc}{\contentsline {subsubsection}{\numberline {3.5.3.39}read\discretionary {-}{}{}Tsensor}{23}{subsubsection.3.5.3.39}}
\newlabel{class_mpx_module_a71064b2b05cfd8187c0c0d74cd4ab36a}{{3.5.3.39}{23}{read\-Tsensor\relax }{subsubsection.3.5.3.39}{}}
\@writefile{toc}{\contentsline {subsubsection}{\numberline {3.5.3.40}refresh\discretionary {-}{}{}Fsr}{23}{subsubsection.3.5.3.40}}
\newlabel{class_mpx_module_a6cfa9c57adfa7247f8c4e46aecfc3b7d}{{3.5.3.40}{23}{refresh\-Fsr\relax }{subsubsection.3.5.3.40}{}}
\@writefile{toc}{\contentsline {subsubsection}{\numberline {3.5.3.41}reset\discretionary {-}{}{}Chips}{23}{subsubsection.3.5.3.41}}
\newlabel{class_mpx_module_a719bcfe88ab1014ac1c042d478c7b110}{{3.5.3.41}{23}{reset\-Chips\relax }{subsubsection.3.5.3.41}{}}
\gdef \LT@xxiv {\LT@entry 
    {1}{59.44409pt}\LT@entry 
    {1}{288.47205pt}}
\@writefile{toc}{\contentsline {subsubsection}{\numberline {3.5.3.42}reset\discretionary {-}{}{}Frame\discretionary {-}{}{}Counter}{24}{subsubsection.3.5.3.42}}
\newlabel{class_mpx_module_abcea367f173ad05c7d4aa16f81b760f1}{{3.5.3.42}{24}{reset\-Frame\-Counter\relax }{subsubsection.3.5.3.42}{}}
\@writefile{toc}{\contentsline {subsubsection}{\numberline {3.5.3.43}reset\discretionary {-}{}{}Matrix}{24}{subsubsection.3.5.3.43}}
\newlabel{class_mpx_module_a5ecf4aa1f7e706974a89f4aff186b0c6}{{3.5.3.43}{24}{reset\-Matrix\relax }{subsubsection.3.5.3.43}{}}
\@writefile{toc}{\contentsline {subsubsection}{\numberline {3.5.3.44}rmw\discretionary {-}{}{}Reg}{24}{subsubsection.3.5.3.44}}
\newlabel{class_mpx_module_ae76a0a6c0dbc572b6cda9984e1eb092b}{{3.5.3.44}{24}{rmw\-Reg\relax }{subsubsection.3.5.3.44}{}}
\@writefile{toc}{\contentsline {subsubsection}{\numberline {3.5.3.45}set\discretionary {-}{}{}Fsr}{24}{subsubsection.3.5.3.45}}
\newlabel{class_mpx_module_a0876834a42b29379bfdb8b48bbe6833b}{{3.5.3.45}{24}{set\-Fsr\relax }{subsubsection.3.5.3.45}{}}
\gdef \LT@xxv {\LT@entry 
    {1}{59.44409pt}\LT@entry 
    {1}{288.47205pt}}
\gdef \LT@xxvi {\LT@entry 
    {1}{59.44409pt}\LT@entry 
    {1}{288.47205pt}}
\@writefile{toc}{\contentsline {subsubsection}{\numberline {3.5.3.46}set\discretionary {-}{}{}High\discretionary {-}{}{}Speed\discretionary {-}{}{}Readout}{25}{subsubsection.3.5.3.46}}
\newlabel{class_mpx_module_ad567dc6ef3e6dbd55f9646aa6d02000d}{{3.5.3.46}{25}{set\-High\-Speed\-Readout\relax }{subsubsection.3.5.3.46}{}}
\@writefile{toc}{\contentsline {subsubsection}{\numberline {3.5.3.47}set\discretionary {-}{}{}Log\discretionary {-}{}{}Verbose}{25}{subsubsection.3.5.3.47}}
\newlabel{class_mpx_module_a92bb0ba159d35e25c784723f7e123f42}{{3.5.3.47}{25}{set\-Log\-Verbose\relax }{subsubsection.3.5.3.47}{}}
\gdef \LT@xxvii {\LT@entry 
    {1}{59.44409pt}\LT@entry 
    {1}{288.47205pt}}
\gdef \LT@xxviii {\LT@entry 
    {1}{59.44409pt}\LT@entry 
    {1}{288.47205pt}}
\gdef \LT@xxix {\LT@entry 
    {1}{59.44409pt}\LT@entry 
    {1}{288.47205pt}}
\gdef \LT@xxx {\LT@entry 
    {1}{59.44409pt}\LT@entry 
    {1}{288.47205pt}}
\@writefile{toc}{\contentsline {subsubsection}{\numberline {3.5.3.48}set\discretionary {-}{}{}Par\discretionary {-}{}{}Readout}{26}{subsubsection.3.5.3.48}}
\newlabel{class_mpx_module_accb44603c494ec423f6670af9eb9b385}{{3.5.3.48}{26}{set\-Par\-Readout\relax }{subsubsection.3.5.3.48}{}}
\@writefile{toc}{\contentsline {subsubsection}{\numberline {3.5.3.49}set\discretionary {-}{}{}Pixels\discretionary {-}{}{}Cfg}{26}{subsubsection.3.5.3.49}}
\newlabel{class_mpx_module_a4c7cee4bec20f0867b6a6235d570577b}{{3.5.3.49}{26}{set\-Pixels\-Cfg\relax }{subsubsection.3.5.3.49}{}}
\@writefile{toc}{\contentsline {subsubsection}{\numberline {3.5.3.50}set\discretionary {-}{}{}Pixels\discretionary {-}{}{}Cfg}{26}{subsubsection.3.5.3.50}}
\newlabel{class_mpx_module_ac81bcdc4e214e94a093c9cb59c951d2a}{{3.5.3.50}{26}{set\-Pixels\-Cfg\relax }{subsubsection.3.5.3.50}{}}
\gdef \LT@xxxi {\LT@entry 
    {1}{59.44409pt}\LT@entry 
    {1}{288.47205pt}}
\@writefile{toc}{\contentsline {subsubsection}{\numberline {3.5.3.51}set\discretionary {-}{}{}Pixels\discretionary {-}{}{}Cfg}{27}{subsubsection.3.5.3.51}}
\newlabel{class_mpx_module_aaee9f7b01cfe1a7fe2a75b4446f40a23}{{3.5.3.51}{27}{set\-Pixels\-Cfg\relax }{subsubsection.3.5.3.51}{}}
\@writefile{toc}{\contentsline {subsubsection}{\numberline {3.5.3.52}store\discretionary {-}{}{}Dacs}{27}{subsubsection.3.5.3.52}}
\newlabel{class_mpx_module_a68f95e2dc3e3678d7093c4353beae4b1}{{3.5.3.52}{27}{store\-Dacs\relax }{subsubsection.3.5.3.52}{}}
\@writefile{toc}{\contentsline {subsubsection}{\numberline {3.5.3.53}store\discretionary {-}{}{}Frame}{27}{subsubsection.3.5.3.53}}
\newlabel{class_mpx_module_ad6ce66c3d03675cb26f1cbcdc902596e}{{3.5.3.53}{27}{store\-Frame\relax }{subsubsection.3.5.3.53}{}}
\gdef \LT@xxxii {\LT@entry 
    {1}{59.44409pt}\LT@entry 
    {1}{288.47205pt}}
\gdef \LT@xxxiii {\LT@entry 
    {1}{59.44409pt}\LT@entry 
    {1}{288.47205pt}}
\@writefile{toc}{\contentsline {subsubsection}{\numberline {3.5.3.54}store\discretionary {-}{}{}Id}{28}{subsubsection.3.5.3.54}}
\newlabel{class_mpx_module_a067aafa27c8fa52a1f3ef9d5fb0dc3f1}{{3.5.3.54}{28}{store\-Id\relax }{subsubsection.3.5.3.54}{}}
\@writefile{toc}{\contentsline {subsubsection}{\numberline {3.5.3.55}store\discretionary {-}{}{}Pixels\discretionary {-}{}{}Cfg}{28}{subsubsection.3.5.3.55}}
\newlabel{class_mpx_module_a13626a0690d809ad5c20799698265729}{{3.5.3.55}{28}{store\-Pixels\-Cfg\relax }{subsubsection.3.5.3.55}{}}
\@writefile{toc}{\contentsline {subsubsection}{\numberline {3.5.3.56}test\discretionary {-}{}{}Pulse\discretionary {-}{}{}Enable}{28}{subsubsection.3.5.3.56}}
\newlabel{class_mpx_module_aef404b6354e41c0fc25c3791d7f3dc03}{{3.5.3.56}{28}{test\-Pulse\-Enable\relax }{subsubsection.3.5.3.56}{}}
\gdef \LT@xxxiv {\LT@entry 
    {1}{59.44409pt}\LT@entry 
    {1}{288.47205pt}}
\gdef \LT@xxxv {\LT@entry 
    {1}{59.44409pt}\LT@entry 
    {1}{288.47205pt}}
\@writefile{toc}{\contentsline {subsubsection}{\numberline {3.5.3.57}timer\discretionary {-}{}{}Expired}{29}{subsubsection.3.5.3.57}}
\newlabel{class_mpx_module_aee98796b47ea4468e451ffbb8e4fcb3e}{{3.5.3.57}{29}{timer\-Expired\relax }{subsubsection.3.5.3.57}{}}
\@writefile{toc}{\contentsline {subsubsection}{\numberline {3.5.3.58}write\discretionary {-}{}{}Dac}{29}{subsubsection.3.5.3.58}}
\newlabel{class_mpx_module_aab48bc234431c00bfbfe144178bb2df5}{{3.5.3.58}{29}{write\-Dac\relax }{subsubsection.3.5.3.58}{}}
\@writefile{toc}{\contentsline {subsubsection}{\numberline {3.5.3.59}write\discretionary {-}{}{}Firmware}{29}{subsubsection.3.5.3.59}}
\newlabel{class_mpx_module_ad175c5705d596181e91b69d0fcdaba79}{{3.5.3.59}{29}{write\-Firmware\relax }{subsubsection.3.5.3.59}{}}
\gdef \LT@xxxvi {\LT@entry 
    {1}{59.44409pt}\LT@entry 
    {1}{288.47205pt}}
\gdef \LT@xxxvii {\LT@entry 
    {1}{59.44409pt}\LT@entry 
    {1}{288.47205pt}}
\@writefile{toc}{\contentsline {subsubsection}{\numberline {3.5.3.60}write\discretionary {-}{}{}Reg}{30}{subsubsection.3.5.3.60}}
\newlabel{class_mpx_module_a9257122e3fe7f1461460b6ddfa708f08}{{3.5.3.60}{30}{write\-Reg\relax }{subsubsection.3.5.3.60}{}}
\@writefile{toc}{\contentsline {section}{\numberline {3.6}\discretionary {-}{}{}Mpx\discretionary {-}{}{}Module\discretionary {-}{}{}Mgr \discretionary {-}{}{}Class \discretionary {-}{}{}Reference}{31}{section.3.6}}
\newlabel{class_mpx_module_mgr}{{3.6}{31}{\-Mpx\-Module\-Mgr \-Class \-Reference\relax }{section.3.6}{}}
\newlabel{class_mpx_module_mgr_a3272a4e63c5dcf5b34304408e098bb31}{{3.6}{31}{\-Public \-Member \-Functions\relax }{section*.8}{}}
\newlabel{class_mpx_module_mgr_a12761932cdfef53db22c1d2b4c91e6a7}{{3.6}{31}{\-Public \-Member \-Functions\relax }{section*.8}{}}
\newlabel{class_mpx_module_mgr_a2c82fe95bc002f8943bd1a0995b2fc63}{{3.6}{31}{\-Public \-Member \-Functions\relax }{section*.8}{}}
\newlabel{class_mpx_module_mgr_a82bcfc4e3b5042a21a0c724f938e2379}{{3.6}{31}{\-Public \-Member \-Functions\relax }{section*.8}{}}
\newlabel{class_mpx_module_mgr_af8871c35aa6707c54c903e58847b67d3}{{3.6}{31}{\-Public \-Member \-Functions\relax }{section*.8}{}}
\newlabel{class_mpx_module_mgr_aaf496d4a61c0ae3833363ac78b163464}{{3.6}{31}{\-Public \-Member \-Functions\relax }{section*.8}{}}
\newlabel{class_mpx_module_mgr_ac72711f326e9ff35e815c348162f613c}{{3.6}{31}{\-Static \-Public \-Member \-Functions\relax }{section*.9}{}}
\newlabel{class_mpx_module_mgr_a047f4d7feac4175e6da836250e47c271}{{3.6}{31}{\-Protected \-Member \-Functions\relax }{section*.10}{}}
\newlabel{class_mpx_module_mgr_afa77c1542283a458ead27d0a5a6bd1d6}{{3.6}{31}{\-Protected \-Member \-Functions\relax }{section*.10}{}}
\newlabel{class_mpx_module_mgr_a64dbc44075c15b36b851afe74ce0e84b}{{3.6}{31}{\-Protected \-Member \-Functions\relax }{section*.10}{}}
